\relax 
\providecommand\hyper@newdestlabel[2]{}
\providecommand\HyperFirstAtBeginDocument{\AtBeginDocument}
\HyperFirstAtBeginDocument{\ifx\hyper@anchor\@undefined
\global\let\oldcontentsline\contentsline
\gdef\contentsline#1#2#3#4{\oldcontentsline{#1}{#2}{#3}}
\global\let\oldnewlabel\newlabel
\gdef\newlabel#1#2{\newlabelxx{#1}#2}
\gdef\newlabelxx#1#2#3#4#5#6{\oldnewlabel{#1}{{#2}{#3}}}
\AtEndDocument{\ifx\hyper@anchor\@undefined
\let\contentsline\oldcontentsline
\let\newlabel\oldnewlabel
\fi}
\fi}
\global\let\hyper@last\relax 
\gdef\HyperFirstAtBeginDocument#1{#1}
\providecommand\HyField@AuxAddToFields[1]{}
\providecommand\HyField@AuxAddToCoFields[2]{}
\citation{harbaugh96}
\citation{twdb17}
\citation{hsieh93}
\citation{maxwell16}
\citation{peckham14}
\citation{gnu16}
\citation{jupyter17}
\citation{austin16}
\bibstyle{plainnat}
\bibdata{./sds-csc-paper.bib}
\bibcite{jupyter17}{{1}{2017}{{Avila et~al.}}{{Avila, Bussonier, Corlay, Frederic, Granger, Grout, Hamrick, Ivanov, Kluyver, Kelley, Parente, Perez, Ragan-Kelley, Silvester, and Willing}}}
\bibcite{harbaugh96}{{2}{1996}{{Harbaugh and McDonald}}{{}}}
\bibcite{hsieh93}{{3}{1993}{{Hsieh and Freckleton}}{{}}}
\bibcite{austin16}{{4}{2016}{{Josey and Fox}}{{}}}
\bibcite{maxwell16}{{5}{2016}{{Maxwell et~al.}}{{Maxwell, Kollet, Smith, Woodward, Falgout, Ferguson, Engdahl, Condon, Hector, Lopez, Gilbert, Bearup, Jefferson, Collins, de~Graaf, Pribulick, Baldwin, Bosl, Hornung, and Ashby}}}
\bibcite{peckham14}{{6}{2014}{{Peckham}}{{}}}
\bibcite{gnu16}{{7}{2016}{{Ramey}}{{}}}
\bibcite{twdb17}{{8}{2017}{{{T}exas {W}ater~{D}evelopment {B}oard}}{{}}}
\select@language{english}
\@writefile{toc}{\select@language{english}}
\@writefile{lof}{\select@language{english}}
\@writefile{lot}{\select@language{english}}
\providecommand*\caption@xref[2]{\@setref\relax\@undefined{#1}}
\newlabel{fig:p2p}{{1}{1}{$O(n^2)$ -- an exemplary, fully connected point-to-point network\relax }{Doc-Start}{}}
\@writefile{snm}{\beamer@slide {fig:p2p}{1}}
\newlabel{fig:sh}{{2}{1}{$O(n)$ -- a spoke-hub network with a single central node\relax }{Doc-Start}{}}
\@writefile{snm}{\beamer@slide {fig:sh}{1}}
\newlabel{fig:wf}{{3}{1}{Modifications\relax }{Doc-Start}{}}
\@writefile{snm}{\beamer@slide {fig:wf}{1}}
\@writefile{nav}{\headcommand {\beamer@sectionpages {1}{0}}}
\@writefile{nav}{\headcommand {\beamer@subsectionpages {1}{0}}}
\@writefile{nav}{\headcommand {\sectionentry {1}{References}{1}{References}{0}}}
\@writefile{nav}{\headcommand {\slideentry {1}{0}{0}{1/1}{}{0}}}
\@writefile{nav}{\headcommand {\beamer@framepages {1}{1}}}
\@writefile{nav}{\headcommand {\beamer@partpages {1}{1}}}
\@writefile{nav}{\headcommand {\beamer@subsectionpages {1}{1}}}
\@writefile{nav}{\headcommand {\beamer@sectionpages {1}{1}}}
\@writefile{nav}{\headcommand {\beamer@documentpages {1}}}
\@writefile{nav}{\headcommand {\def \inserttotalframenumber {1}}}
