%!PS-Adobe-3.0
%%Creator: graphviz version 2.40.1 (20161225.0304)
%%Title: workflow
%%Pages: (atend)
%%BoundingBox: (atend)
%%EndComments
save
%%BeginProlog
/DotDict 200 dict def
DotDict begin

/setupLatin1 {
mark
/EncodingVector 256 array def
 EncodingVector 0

ISOLatin1Encoding 0 255 getinterval putinterval
EncodingVector 45 /hyphen put

% Set up ISO Latin 1 character encoding
/starnetISO {
        dup dup findfont dup length dict begin
        { 1 index /FID ne { def }{ pop pop } ifelse
        } forall
        /Encoding EncodingVector def
        currentdict end definefont
} def
/Times-Roman starnetISO def
/Times-Italic starnetISO def
/Times-Bold starnetISO def
/Times-BoldItalic starnetISO def
/Helvetica starnetISO def
/Helvetica-Oblique starnetISO def
/Helvetica-Bold starnetISO def
/Helvetica-BoldOblique starnetISO def
/Courier starnetISO def
/Courier-Oblique starnetISO def
/Courier-Bold starnetISO def
/Courier-BoldOblique starnetISO def
cleartomark
} bind def

%%BeginResource: procset graphviz 0 0
/coord-font-family /Times-Roman def
/default-font-family /Times-Roman def
/coordfont coord-font-family findfont 8 scalefont def

/InvScaleFactor 1.0 def
/set_scale {
       dup 1 exch div /InvScaleFactor exch def
       scale
} bind def

% styles
/solid { [] 0 setdash } bind def
/dashed { [9 InvScaleFactor mul dup ] 0 setdash } bind def
/dotted { [1 InvScaleFactor mul 6 InvScaleFactor mul] 0 setdash } bind def
/invis {/fill {newpath} def /stroke {newpath} def /show {pop newpath} def} bind def
/bold { 2 setlinewidth } bind def
/filled { } bind def
/unfilled { } bind def
/rounded { } bind def
/diagonals { } bind def
/tapered { } bind def

% hooks for setting color 
/nodecolor { sethsbcolor } bind def
/edgecolor { sethsbcolor } bind def
/graphcolor { sethsbcolor } bind def
/nopcolor {pop pop pop} bind def

/beginpage {	% i j npages
	/npages exch def
	/j exch def
	/i exch def
	/str 10 string def
	npages 1 gt {
		gsave
			coordfont setfont
			0 0 moveto
			(\() show i str cvs show (,) show j str cvs show (\)) show
		grestore
	} if
} bind def

/set_font {
	findfont exch
	scalefont setfont
} def

% draw text fitted to its expected width
/alignedtext {			% width text
	/text exch def
	/width exch def
	gsave
		width 0 gt {
			[] 0 setdash
			text stringwidth pop width exch sub text length div 0 text ashow
		} if
	grestore
} def

/boxprim {				% xcorner ycorner xsize ysize
		4 2 roll
		moveto
		2 copy
		exch 0 rlineto
		0 exch rlineto
		pop neg 0 rlineto
		closepath
} bind def

/ellipse_path {
	/ry exch def
	/rx exch def
	/y exch def
	/x exch def
	matrix currentmatrix
	newpath
	x y translate
	rx ry scale
	0 0 1 0 360 arc
	setmatrix
} bind def

/endpage { showpage } bind def
/showpage { } def

/layercolorseq
	[	% layer color sequence - darkest to lightest
		[0 0 0]
		[.2 .8 .8]
		[.4 .8 .8]
		[.6 .8 .8]
		[.8 .8 .8]
	]
def

/layerlen layercolorseq length def

/setlayer {/maxlayer exch def /curlayer exch def
	layercolorseq curlayer 1 sub layerlen mod get
	aload pop sethsbcolor
	/nodecolor {nopcolor} def
	/edgecolor {nopcolor} def
	/graphcolor {nopcolor} def
} bind def

/onlayer { curlayer ne {invis} if } def

/onlayers {
	/myupper exch def
	/mylower exch def
	curlayer mylower lt
	curlayer myupper gt
	or
	{invis} if
} def

/curlayer 0 def

%%EndResource
%%EndProlog
%%BeginSetup
14 default-font-family set_font
% /arrowlength 10 def
% /arrowwidth 5 def

% make sure pdfmark is harmless for PS-interpreters other than Distiller
/pdfmark where {pop} {userdict /pdfmark /cleartomark load put} ifelse
% make '<<' and '>>' safe on PS Level 1 devices
/languagelevel where {pop languagelevel}{1} ifelse
2 lt {
    userdict (<<) cvn ([) cvn load put
    userdict (>>) cvn ([) cvn load put
} if

%%EndSetup
setupLatin1
%%Page: 1 1
%%PageBoundingBox: 36 36 682 794
%%PageOrientation: Portrait
0 0 1 beginpage
gsave
36 36 646 758 boxprim clip newpath
1 1 set_scale 0 rotate 40 40 translate
% clustermf
gsave
1 setlinewidth
0 0 0 graphcolor
newpath 8 236.5269 moveto
8 742.0269 lineto
630 742.0269 lineto
630 236.5269 lineto
closepath stroke
0 0 0 graphcolor
24 /Times-Roman set_font
248.5 718.8269 moveto 141 (MODFLOW) alignedtext
grestore
% clustercode
gsave
1 setlinewidth
0 0 0 graphcolor
newpath 16 244.5269 moveto
16 700.0269 lineto
440 700.0269 lineto
440 244.5269 lineto
closepath stroke
0 0 0 graphcolor
24 /Times-Roman set_font
151 676.8269 moveto 154 (Flow Models) alignedtext
grestore
% clusterconv
gsave
1 setlinewidth
0 0 0 graphcolor
newpath 448 273.5269 moveto
448 567.0269 lineto
622 567.0269 lineto
622 273.5269 lineto
closepath stroke
0 0 0 graphcolor
24 /Times-Roman set_font
467.5 543.8269 moveto 135 (Converters) alignedtext
grestore
% struct96
gsave
1 setlinewidth
solid
0.66667 1 1 nodecolor
newpath 85 578.5269 moveto
85 653.5269 lineto
205 653.5269 lineto
205 578.5269 lineto
closepath stroke
0 0 0 nodecolor
14 /Times-Roman set_font
90 612.3269 moveto 110 (Documentation) alignedtext
0 1 1 nodecolor
newpath 205 628.5269 moveto
205 653.5269 lineto
330 653.5269 lineto
330 628.5269 lineto
closepath fill
1 setlinewidth
solid
0.66667 1 1 nodecolor
newpath 205 628.5269 moveto
205 653.5269 lineto
330 653.5269 lineto
330 628.5269 lineto
closepath stroke
0 0 0 nodecolor
14 /Times-Roman set_font
236 637.3269 moveto 63 (Makefile) alignedtext
1 setlinewidth
solid
0.66667 1 1 nodecolor
newpath 330 578.5269 moveto
330 653.5269 lineto
414 653.5269 lineto
414 578.5269 lineto
closepath stroke
0 0 0 nodecolor
14 /Times-Roman set_font
335 612.3269 moveto 74 (Input files) alignedtext
0 0 0 nodecolor
newpath 205 603.5269 moveto
205 628.5269 lineto
330 628.5269 lineto
330 603.5269 lineto
closepath fill
1 setlinewidth
solid
0.66667 1 1 nodecolor
newpath 205 603.5269 moveto
205 628.5269 lineto
330 628.5269 lineto
330 603.5269 lineto
closepath stroke
0 0 0 nodecolor
14 /Times-Roman set_font
210 613.3269 moveto 115 (MODFLOW-96) alignedtext
1 setlinewidth
solid
0.66667 1 1 nodecolor
newpath 205 578.5269 moveto
205 603.5269 lineto
330 603.5269 lineto
330 578.5269 lineto
closepath stroke
0 0 0 nodecolor
14 /Times-Roman set_font
236 587.3269 moveto 63 (Program) alignedtext
grestore
% structhfb
gsave
1 setlinewidth
solid
0.66667 1 1 nodecolor
newpath 55 469.0269 moveto
55 544.0269 lineto
175 544.0269 lineto
175 469.0269 lineto
closepath stroke
0 0 0 nodecolor
14 /Times-Roman set_font
60 502.8269 moveto 110 (Documentation) alignedtext
1 setlinewidth
solid
0.66667 1 1 nodecolor
newpath 175 519.0269 moveto
175 544.0269 lineto
340 544.0269 lineto
340 519.0269 lineto
closepath stroke
0 0 0 nodecolor
14 /Times-Roman set_font
226 527.8269 moveto 63 (Makefile) alignedtext
1 setlinewidth
solid
0.66667 1 1 nodecolor
newpath 340 469.0269 moveto
340 544.0269 lineto
424 544.0269 lineto
424 469.0269 lineto
closepath stroke
0 0 0 nodecolor
14 /Times-Roman set_font
345 502.8269 moveto 74 (Input files) alignedtext
0 0 0 nodecolor
newpath 175 494.0269 moveto
175 519.0269 lineto
340 519.0269 lineto
340 494.0269 lineto
closepath fill
1 setlinewidth
solid
0.66667 1 1 nodecolor
newpath 175 494.0269 moveto
175 519.0269 lineto
340 519.0269 lineto
340 494.0269 lineto
closepath stroke
0 0 0 nodecolor
14 /Times-Roman set_font
180 503.8269 moveto 155 (MODFLOW-96 HFB) alignedtext
1 setlinewidth
solid
0.66667 1 1 nodecolor
newpath 175 469.0269 moveto
175 494.0269 lineto
340 494.0269 lineto
340 469.0269 lineto
closepath stroke
0 0 0 nodecolor
14 /Times-Roman set_font
226 477.8269 moveto 63 (Program) alignedtext
grestore
% struct96->structhfb
% node9600
gsave
1 setlinewidth
0.66667 1 1 nodecolor
510 507.0269 53.8905 18 ellipse_path stroke
0 0 0 nodecolor
14 /Times-Roman set_font
476.5 503.3269 moveto 67 ('96 to '00) alignedtext
grestore
% struct96->node9600
gsave
1 setlinewidth
0 0 0 edgecolor
newpath 414 615.5269 moveto
461.788 615.5269 491.5216 555.7605 503.6766 524.9435 curveto
stroke
grestore
% struct00
gsave
1 setlinewidth
solid
0.66667 1 1 nodecolor
newpath 96 368.0269 moveto
96 443.0269 lineto
216 443.0269 lineto
216 368.0269 lineto
closepath stroke
0 0 0 nodecolor
14 /Times-Roman set_font
101 401.8269 moveto 110 (Documentation) alignedtext
1 setlinewidth
solid
0.66667 1 1 nodecolor
newpath 216 418.0269 moveto
216 443.0269 lineto
341 443.0269 lineto
341 418.0269 lineto
closepath stroke
0 0 0 nodecolor
14 /Times-Roman set_font
247 426.8269 moveto 63 (Makefile) alignedtext
1 setlinewidth
solid
0.66667 1 1 nodecolor
newpath 341 368.0269 moveto
341 443.0269 lineto
425 443.0269 lineto
425 368.0269 lineto
closepath stroke
0 0 0 nodecolor
14 /Times-Roman set_font
346 401.8269 moveto 74 (Input files) alignedtext
0 0 0 nodecolor
newpath 216 393.0269 moveto
216 418.0269 lineto
341 418.0269 lineto
341 393.0269 lineto
closepath fill
1 setlinewidth
solid
0.66667 1 1 nodecolor
newpath 216 393.0269 moveto
216 418.0269 lineto
341 418.0269 lineto
341 393.0269 lineto
closepath stroke
0 0 0 nodecolor
14 /Times-Roman set_font
221 402.8269 moveto 115 (MODFLOW-00) alignedtext
1 setlinewidth
solid
0.66667 1 1 nodecolor
newpath 216 368.0269 moveto
216 393.0269 lineto
341 393.0269 lineto
341 368.0269 lineto
closepath stroke
0 0 0 nodecolor
14 /Times-Roman set_font
247 376.8269 moveto 63 (Program) alignedtext
grestore
% structhfb->struct00
% nodehfb00
gsave
1 setlinewidth
0.66667 1 1 nodecolor
535 406.0269 78.7863 18 ellipse_path stroke
0 0 0 nodecolor
14 /Times-Roman set_font
482.5 402.3269 moveto 105 ('96 HFB to '00) alignedtext
grestore
% structhfb->nodehfb00
gsave
1 setlinewidth
0 0 0 edgecolor
newpath 424 506.0269 moveto
444.0752 506.0269 430.6843 480.5504 444 465.5269 curveto
459.9008 447.5869 482.4209 432.8032 501.0794 422.4594 curveto
stroke
grestore
% struct05
gsave
0 1 1 nodecolor
newpath 32 256.5269 moveto
32 342.5269 lineto
152 342.5269 lineto
152 256.5269 lineto
closepath fill
1 setlinewidth
solid
0.66667 1 1 nodecolor
newpath 32 256.5269 moveto
32 342.5269 lineto
152 342.5269 lineto
152 256.5269 lineto
closepath stroke
0 0 0 nodecolor
14 /Times-Roman set_font
37 295.8269 moveto 110 (Documentation) alignedtext
0 1 1 nodecolor
newpath 152 317.5269 moveto
152 342.5269 lineto
340 342.5269 lineto
340 317.5269 lineto
closepath fill
1 setlinewidth
solid
0.66667 1 1 nodecolor
newpath 152 317.5269 moveto
152 342.5269 lineto
340 342.5269 lineto
340 317.5269 lineto
closepath stroke
0 0 0 nodecolor
14 /Times-Roman set_font
214.5 326.3269 moveto 63 (Makefile) alignedtext
1 setlinewidth
solid
0.66667 1 1 nodecolor
newpath 340 256.5269 moveto
340 342.5269 lineto
424 342.5269 lineto
424 256.5269 lineto
closepath stroke
0 0 0 nodecolor
14 /Times-Roman set_font
345 295.8269 moveto 74 (Input files) alignedtext
1 setlinewidth
solid
0.66667 1 1 nodecolor
newpath 152 281.5269 moveto
152 317.5269 lineto
340 317.5269 lineto
340 281.5269 lineto
closepath stroke
0 0 0 nodecolor
24 /Times-Roman set_font
157 294.3269 moveto 178 (MODFLOW-05) alignedtext
1 setlinewidth
solid
0.66667 1 1 nodecolor
newpath 152 256.5269 moveto
152 281.5269 lineto
340 281.5269 lineto
340 256.5269 lineto
closepath stroke
0 0 0 nodecolor
14 /Times-Roman set_font
214.5 265.3269 moveto 63 (Program) alignedtext
grestore
% struct00->struct05
% node0005
gsave
1 setlinewidth
0.66667 1 1 nodecolor
510 299.5269 53.8905 18 ellipse_path stroke
0 0 0 nodecolor
14 /Times-Roman set_font
476.5 295.8269 moveto 67 ('00 to '05) alignedtext
grestore
% struct00->node0005
gsave
1 setlinewidth
0 0 0 edgecolor
newpath 425 405.0269 moveto
444.8824 405.0269 432.515 380.7566 444 364.5269 curveto
456.9129 346.2794 475.261 328.6845 489.3351 316.4133 curveto
stroke
grestore
% nodeinv0
% struct05->nodeinv0
gsave
1 setlinewidth
0 0 0 edgecolor
newpath 246 256.5269 moveto
246 235.962 251 210.5269 251 210.5269 curveto
stroke
grestore
% crosswalk
gsave
1 setlinewidth
0.66667 1 1 nodecolor
90 210.5269 57.6901 18 ellipse_path stroke
0 0 0 nodecolor
14 /Times-Roman set_font
53.5 206.8269 moveto 73 (crosswalk) alignedtext
grestore
% struct05->crosswalk
gsave
1 setlinewidth
0 0 0 edgecolor
newpath 92 256.5269 moveto
92 247.4141 91.6034 237.2955 91.1634 228.8739 curveto
stroke
grestore
% node9600->struct00
gsave
1 setlinewidth
0 0 0 edgecolor
newpath 487.2902 490.5114 moveto
473.4107 479.5326 456.0679 464.121 444 447.5269 curveto
434.6829 434.7154 440.6236 416.6088 434.6343 408.8251 curveto
stroke
0 0 0 edgecolor
newpath 435.5868 405.4385 moveto
425 405.0269 lineto
433.0195 411.9507 lineto
closepath fill
1 setlinewidth
solid
0 0 0 edgecolor
newpath 435.5868 405.4385 moveto
425 405.0269 lineto
433.0195 411.9507 lineto
closepath stroke
grestore
% node9600->nodehfb00
% nodehfb00->struct00
gsave
1 setlinewidth
0 0 0 edgecolor
newpath 456.2862 405.1378 moveto
449.219 405.0921 442.0945 405.0577 435.11 405.0401 curveto
stroke
0 0 0 edgecolor
newpath 435.0046 401.5401 moveto
425 405.0269 lineto
434.9954 408.5401 lineto
closepath fill
1 setlinewidth
solid
0 0 0 edgecolor
newpath 435.0046 401.5401 moveto
425 405.0269 lineto
434.9954 408.5401 lineto
closepath stroke
grestore
% nodehfb00->node0005
% node0005->struct05
gsave
1 setlinewidth
0 0 0 edgecolor
newpath 455.8662 299.5269 moveto
448.7659 299.5269 441.4723 299.5269 434.3257 299.5269 curveto
stroke
0 0 0 edgecolor
newpath 434 296.027 moveto
424 299.5269 lineto
434 303.027 lineto
closepath fill
1 setlinewidth
solid
0 0 0 edgecolor
newpath 434 296.027 moveto
424 299.5269 lineto
434 303.027 lineto
closepath stroke
grestore
% structpf
gsave
1 setlinewidth
0.66667 1 1 nodecolor
newpath 52.5 .5 moveto
52.5 69.5 lineto
347.5 69.5 lineto
347.5 .5 lineto
closepath stroke
0 0 0 nodecolor
14 /Times-Roman set_font
60.5 31.3 moveto 110 (Documentation) alignedtext
1 setlinewidth
0.66667 1 1 nodecolor
newpath 178.5 .5 moveto
178.5 69.5 lineto
stroke
0 0 0 nodecolor
14 /Times-Roman set_font
186.5 54.3 moveto 63 (Program) alignedtext
1 setlinewidth
0.66667 1 1 nodecolor
newpath 178.5 46.5 moveto
257.5 46.5 lineto
stroke
0 0 0 nodecolor
14 /Times-Roman set_font
188 31.3 moveto 60 (ParFlow) alignedtext
1 setlinewidth
0.66667 1 1 nodecolor
newpath 178.5 23.5 moveto
257.5 23.5 lineto
stroke
0 0 0 nodecolor
14 /Times-Roman set_font
186.5 8.3 moveto 63 (Makefile) alignedtext
1 setlinewidth
0.66667 1 1 nodecolor
newpath 257.5 .5 moveto
257.5 69.5 lineto
stroke
0 0 0 nodecolor
14 /Times-Roman set_font
265.5 31.3 moveto 74 (Input files) alignedtext
grestore
% nodegsn
gsave
1 setlinewidth
0.66667 1 1 nodecolor
254 156.5269 145.6742 18 ellipse_path stroke
0 0 0 nodecolor
14 /Times-Roman set_font
150 152.8269 moveto 208 (Geoscience Standard Names) alignedtext
grestore
% nodeinv1
% nodegsn->nodeinv1
gsave
1 setlinewidth
dashed
0 0 0 edgecolor
newpath 247.8054 138.5408 moveto
242.5987 123.4228 236 104.2635 236 104.2635 curveto
stroke
grestore
% nodeinv0->nodegsn
gsave
1 setlinewidth
dashed
0 0 0 edgecolor
newpath 251 210.5269 moveto
251 210.5269 252.114 190.4747 252.9843 174.8088 curveto
stroke
grestore
% nodeinv1->structpf
gsave
1 setlinewidth
0 0 0 edgecolor
newpath 236 104.2635 moveto
236 104.2635 224.3446 93.2156 219.7917 79.937 curveto
stroke
0 0 0 edgecolor
newpath 223.219 79.2202 moveto
218 70 lineto
216.3301 80.4624 lineto
closepath fill
1 setlinewidth
solid
0 0 0 edgecolor
newpath 223.219 79.2202 moveto
218 70 lineto
216.3301 80.4624 lineto
closepath stroke
grestore
% crosswalk->structpf
gsave
1 setlinewidth
0 0 0 edgecolor
newpath 91.7334 192.3979 moveto
93.2579 177.7905 95.7419 156.756 99 138.5269 curveto
103.8579 111.3472 112.6083 103.1245 114.5925 80.0522 curveto
stroke
0 0 0 edgecolor
newpath 118.0919 80.1336 moveto
115 70 lineto
111.0977 79.85 lineto
closepath fill
1 setlinewidth
solid
0 0 0 edgecolor
newpath 118.0919 80.1336 moveto
115 70 lineto
111.0977 79.85 lineto
closepath stroke
grestore
endpage
showpage
grestore
%%PageTrailer
%%EndPage: 1
%%Trailer
%%Pages: 1
%%BoundingBox: 36 36 682 794
end
restore
%%EOF
